{
  "nodes": [
    {"id": "Einhasad", "group": 1, "size":15},
    {"id": "Gran Kain", "group": 1, "size":15},
    {"id": "Shilen", "group": 2, "size":12},
    {"id": "Pa'agrio", "group": 2, "size":12},
    {"id": "Shaya", "group": 2, "size":12},
    {"id": "Maphr", "group": 2, "size":12},
    {"id": "Eva", "group": 2, "size":12},
    {"id": "Valakas", "group":3, "size":10},
    {"id": "Ember", "group":3, "size":7},
    {"id": "Ixion, Ailes de Flamme", "group":3, "size":7},
    {"id": "Fafurion", "group":3, "size":10},
    {"id": "Lokness, Héraut de Fafurion", "group":3, "size":7},
    {"id": "Antharas", "group":3, "size":10},
    {"id": "Lindvior", "group":3, "size":10},
    {"id": "Tiat", "group":3, "size":10},
    {"id": "Naga, Tempête Ailée", "group":3, "size":7},
    {"id": "Bael Zael", "group":3, "size":10},
    {"id": "Dius", "group":3, "size":7},
    {"id": "Aulakiria", "group":3, "size":10},
    {"id": "Ancien Dragon Étrange", "group":3, "size":7},
    {"id": "Cyrion, Mauvais Esprit", "group":3, "size":7},
    {"id": "Meanas Anor", "group":3, "size":7},
    {"id": "Nakondas", "group":3, "size":7},
    {"id": "Rugissant Lancier Céleste", "group":3, "size":7},

    {"id": "Anakim", "group":4, "size":10},
    {"id": "Galaxia le Chérubin", "group":4, "size":10},
    {"id": "Anais, Seigneur de la Splendeur", "group":4, "size":10},
    {"id": "Shuriel, Feu de la Colère", "group":4, "size":7},
    {"id": "Ashakiel, Flamme de l'Océan", "group":4, "size":10},
    {"id": "Kanadis le Guide", "group":4, "size":10},
    {"id": "Nephilims & Gigants", "group":4, "size":7},
    {"id": "Cerberon, Observateur Païen", "group":4, "size":7},
    {"id": "Barakiel, Flamme de la Splendeur", "group":4, "size":10},
    {"id": "Daimon l’Œil-Blanc", "group":4, "size":10},

    {"id": "Beleth", "group":6, "size":12},
    {"id": "Baylor", "group":6, "size":10},
    {"id": "Darion", "group":6, "size":10},
    {"id": "Darnel", "group":6, "size":10},
    {"id": "Kechi", "group":6, "size":10},
    {"id": "Epidos", "group":6, "size":10},
    {"id": "Larmes", "group":6, "size":10},
    {"id": "Œil de Beleth", "group":6, "size":10},
    {"id": "Sephia, Voyante de Beleth", "group":6, "size":10},
    {"id": "Kenishee la Grande", "group":6, "size":7},
    {"id": "Kurikups", "group":6, "size":10},
    {"id": "Le Prince Démon", "group":6, "size":7},
    {"id": "Ranku", "group":6, "size":7},
    {"id": "Totem Géant de Fer", "group":6, "size":7},
    {"id": "Typhon", "group":6, "size":7},

    {"id": "Triol", "group":8, "size":10},
    {"id": "Andreas Van Halter", "group":8, "size":10},
    {"id": "Falston, Agent du Démon", "group":8, "size":10},
    {"id": "Benom", "group":8, "size":10},

    {"id": "Baium", "group":11, "size":15},
    {"id": "Shunaiman", "group":11, "size":15},
    {"id": "Karte", "group":11, "size":12},
    {"id": "Barion", "group":11, "size":10},
    {"id": "Tirak", "group":11, "size":7},
    {"id": "Mardil, Sauveuse Immortelle", "group":11, "size":12},
    {"id": "Frintezza", "group":11, "size":12},
    {"id": "Solina", "group":11, "size":12},
    {"id": "Scarlet Van Halisha", "group":5, "size":10},
    {"id": "Golkonda le Capricorne", "group":11, "size":10},
    {"id": "Ramdal, Fantôme hostile", "group":11, "size":10},
    {"id": "Korim", "group":11, "size":10},

    {"id": "Lilith", "group":12, "size":12},
    {"id": "Marilion, Sorcière de Lilith", "group":12, "size":10},
    {"id": "Zakaron, Némésis d'Anakim", "group":12, "size":10},
    {"id": "Lilims & Liths", "group":12, "size":7},

    {"id": "Millenu, Gardienne d'Eva", "group":13, "size":12},

    {"id": "Aenkinel", "group":5, "size":10},
    {"id": "Anakazel", "group":5, "size":10},
    {"id": "Dagoniel", "group":5, "size":7},
    {"id": "Sirocco, Seigneur Gargouille", "group":5, "size":10},
    {"id": "Tempête, le Mauvais Esprit", "group":5, "size":7},
    {"id": "Acheron, le Collecteur d’Âmes", "group":5, "size":5},
    {"id": "Malex, Héraut de Dagoniel", "group":5, "size":5},

    {"id": "Brutus l'Obstiné", "group":7, "size":7},
    {"id": "Hallate, Seigneur de la Mort", "group":7, "size":12},
    {"id": "Rahha", "group":7, "size":12},
    {"id": "Kernon", "group":7, "size":10},
    {"id": "Verfa", "group":7, "size":10},
    {"id": "Cabrio, Messager de Shilen", "group":5, "size":10},
    {"id": "Cloe, Prêtresse d'Antharas", "group":3, "size":7},
    {"id": "Lily le Lys Noir", "group":3, "size":7},
    {"id": "Rudelto le Prêtre Sanglant", "group":3, "size":7},

    {"id": "Eilhalder Von Hellmann", "group":10, "size":10},
    {"id": "Giselle Von Hellmann", "group":10, "size":10},
    {"id": "Lidia Von Hellmann", "group":10, "size":10},
    {"id": "Alfred Von Hellmann", "group":10, "size":10},
    {"id": "Adolf Von Hellmann", "group":10, "size":10},
    {"id": "X Von Hellmann", "group":10, "size":10},

    {"id": "Kaysha, Héraut d'Icarus", "group":11, "size":10},
    {"id": "Icarus", "group":11, "size":12},
    {"id": "Prototype no 1 d'Icarus", "group":11, "size":10},
    {"id": "Hardin", "group":11, "size":15},
    {"id": "Géant de Pierre de Feu", "group":11, "size":12},

    {"id": "Guilde des Mammons", "group":98, "size":10},
    {"id": "Talos, Percepteur Mammon", "group":98, "size":10},

    {"id": "Isirr le Sorcier", "group":97, "size":10},
    {"id": "Brukunt des Abysses", "group":97, "size":10},

    {"id": "Amadeo Cadmus", "group":14, "size":15},
    {"id": "Lionel Hunter", "group":14, "size":12},
    {"id": "Le Troisième Gardien Aquatique", "group":14, "size":10},
    {"id": "Belthus Van Dyke", "group":14, "size":12},
    {"id": "Byron Ashton", "group":14, "size":12},
    {"id": "Byron Ashton II", "group":14, "size":12},
    {"id": "Guillotine, Surveillant du Terrain d'Exécution", "group":14, "size":10},

    {"id": "Astair Van Halter", "group":15, "size":15},

    {"id": "Helios", "group":16, "size":15},
    {"id": "Argos", "group":16, "size":12},
    {"id": "Mimir", "group":16, "size":12},
    {"id": "Pavel", "group":16, "size":12},
    {"id": "Core le Noyau", "group":16, "size":10},
    {"id": "Hekaton Prime", "group":16, "size":10},
    {"id": "Atraiban", "group":16, "size":10},
    {"id": "Carnamakos", "group":16, "size":7},
    {"id": "Golem du Fléau", "group":16, "size":7},
    {"id": "Gorgolos", "group":16, "size":7},
    {"id": "Suscepteur d'Archon", "group":16, "size":7},

    {"id": "Freya", "group":17, "size":15},
    {"id": "Kana", "group":17, "size":12},
    {"id": "Sirra, Fée de Glace", "group":17, "size":12},
    {"id": "Capitaine de la Garde Royale de la Reine des Glaces", "group":17, "size":12},

    {"id": "Dr. Chaos", "group":18, "size":12},
    {"id": "Gigantesque Golem du Chaos", "group":18, "size":12},

    {"id": "la Tour d'Ivoire", "group":19, "size":15},
    {"id": "Golem de Pierre de Feu", "group":19, "size":12},

    {"id": "Cronos", "group":96, "size":15},
    {"id": "Mumu, Servante de Cronos", "group":96, "size":12},

    {"id": "Asefa", "group":95, "size":15},
    {"id": "Nastron l’Âme du Feu", "group":95, "size":12},

    {"id": "Udan Mardui", "group":94, "size":15},
    {"id": "Ashutar l’Âme de l'Eau", "group":94, "size":12},


    {"id": "Timidiel", "group": 20, "size":10},
    {"id": "Ruell, Gardien de la Forêt Enchantée", "group": 20, "size":7},
    {"id": "Niniel, Esprit d'Eva", "group": 20, "size":10},
    {"id": "Paniel la Licorne", "group": 20, "size":10},

    {"id": "Thieles le Furieux", "group": 99, "size":10},
    {"id": "Decarbia, Impératrice Sanglante", "group":99, "size":7},
    {"id": "Hannibal", "group":99, "size":7},
    {"id": "Golem mécanique fou", "group":99, "size":7},
    {"id": "Gardien Abandonné", "group":99, "size":7},
    {"id": "Kael Sans Retour", "group":99, "size":7},
    {"id": "Shadar, Seigneur des Flammes", "group":99, "size":7},
    {"id": "Gordon", "group":99, "size":7},
    {"id": "Tanatos, l'Arme Fatale", "group":99, "size":7},
    {"id": "Chef de la Bande de Chats", "group":99, "size":7},
    {"id": "Lidia, Fantôme du Puits", "group":99, "size":7}
  ],
  "links": [
    {"source": "Shunaiman", "target": "Baium", "value": 2},
    {"source": "Baium", "target": "Karte", "value": 2},
    {"source": "Karte", "target": "Barion", "value": 2},
    {"source": "Barion", "target": "Tirak", "value": 2},
    {"source": "Baium", "target": "Frintezza", "value": 1},
    {"source": "Frintezza", "target": "Scarlet Van Halisha", "value": 2},
    {"source": "Baium", "target": "Solina", "value": 1},
    {"source": "Baium", "target": "Ramdal, Fantôme hostile", "value": 2},
    {"source": "Baium", "target": "Golkonda le Capricorne", "value": 2},
    {"source": "Baium", "target": "Mardil, Sauveuse Immortelle", "value": 2},


    {"source": "Eva", "target": "Niniel, Esprit d'Eva", "value": 2},
    {"source": "Eva", "target": "Paniel la Licorne", "value": 1},
    {"source": "Eva", "target": "Timidiel", "value": 2},
    {"source": "Timidiel", "target": "Ruell, Gardien de la Forêt Enchantée", "value": 1},

    {"source": "Guilde des Mammons", "target": "Talos, Percepteur Mammon", "value": 2},

    {"source": "Eva", "target": "Millenu, Gardienne d'Eva", "value": 2},

    {"source": "Adolf Von Hellmann", "target": "Alfred Von Hellmann", "value": 1},
    {"source": "Alfred Von Hellmann", "target": "Eilhalder Von Hellmann", "value": 1},
    {"source": "Alfred Von Hellmann", "target": "Lidia Von Hellmann", "value": 1},
    {"source": "Alfred Von Hellmann", "target": "X Von Hellmann", "value": 1},
    {"source": "X Von Hellmann", "target": "Giselle Von Hellmann", "value": 3},

    {"source": "Amadeo Cadmus", "target": "Belthus Van Dyke", "value": 2},
    {"source": "Amadeo Cadmus", "target": "Byron Ashton", "value": 2},
    {"source": "Amadeo Cadmus", "target": "Lionel Hunter", "value": 2},
    {"source": "Lionel Hunter", "target": "Le Troisième Gardien Aquatique", "value": 2},
    {"source": "Amadeo Cadmus", "target": "Byron Ashton II", "value": 2},
    {"source": "Byron Ashton", "target": "Byron Ashton II", "value": 1},
    {"source": "Byron Ashton", "target": "Acheron, le Collecteur d’Âmes", "value": 1},
    {"source": "Byron Ashton", "target": "Guillotine, Surveillant du Terrain d'Exécution", "value": 1},
    {"source": "Tempête, le Mauvais Esprit", "target": "Acheron, le Collecteur d’Âmes", "value": 2},

    {"source": "Freya", "target": "Capitaine de la Garde Royale de la Reine des Glaces", "value": 2},
    {"source": "Freya", "target": "Kana", "value": 2},
    {"source": "Freya", "target": "Sirra, Fée de Glace", "value": 2},

    {"source": "Helios", "target": "Argos", "value": 2},
    {"source": "Helios", "target": "Mimir", "value": 2},
    {"source": "Helios", "target": "Pavel", "value": 2},
    {"source": "Argos", "target": "Atraiban", "value": 1},
    {"source": "Argos", "target": "Golem du Fléau", "value": 1},
    {"source": "Mimir", "target": "Core le Noyau", "value": 1},
    {"source": "Mimir", "target": "Hekaton Prime", "value": 1},
    {"source": "Hekaton Prime", "target": "Gorgolos", "value": 2},
    {"source": "Core le Noyau", "target": "Carnamakos", "value": 2},
    {"source": "Core le Noyau", "target": "Suscepteur d'Archon", "value": 2},

    {"source": "Dr. Chaos", "target": "Gigantesque Golem du Chaos", "value": 1},

    {"source": "la Tour d'Ivoire", "target": "Golem de Pierre de Feu", "value": 1},

    {"source": "Hardin", "target": "Géant de Pierre de Feu", "value": 1},
    {"source": "Hardin", "target": "Icarus", "value": 2},
    {"source": "Icarus", "target": "Prototype no 1 d'Icarus", "value": 2},
    {"source": "Icarus", "target": "Kaysha, Héraut d'Icarus", "value": 2},

    {"source": "Einhasad", "target": "Shilen", "value": 1},
    {"source": "Einhasad", "target": "Pa'agrio", "value": 1},
    {"source": "Einhasad", "target": "Shaya", "value": 1},
    {"source": "Einhasad", "target": "Maphr", "value": 1},
    {"source": "Einhasad", "target": "Eva", "value": 1},
    {"source": "Einhasad", "target": "Anakim", "value": 1},
    {"source": "Einhasad", "target": "Galaxia le Chérubin", "value": 2},
    {"source": "Einhasad", "target": "Anais, Seigneur de la Splendeur", "value": 2},
    {"source": "Einhasad", "target": "Ashakiel, Flamme de l'Océan", "value": 2},
    {"source": "Einhasad", "target": "Kanadis le Guide", "value": 2},
    {"source": "Anakim", "target": "Nephilims & Gigants", "value": 2},
    {"source": "Anakim", "target": "Cerberon, Observateur Païen", "value": 2},
    {"source": "Einhasad", "target": "Barakiel, Flamme de la Splendeur", "value": 2},
    {"source": "Galaxia le Chérubin", "target": "Shuriel, Feu de la Colère", "value": 2},
    {"source": "Einhasad", "target": "Daimon l’Œil-Blanc", "value": 1},

    {"source": "Shilen", "target": "Aenkinel", "value": 1},
    {"source": "Shilen", "target": "Anakazel", "value": 1},
    {"source": "Shilen", "target": "Scarlet Van Halisha", "value": 1},

    {"source": "Triol", "target": "Benom", "value": 1},
    {"source": "Shilen", "target": "Andreas Van Halter", "value": 2},
    {"source": "Andreas Van Halter", "target": "Triol", "value": 2},
    {"source": "Triol", "target": "Falston, Agent du Démon", "value": 2},

    {"source": "Shilen", "target": "Hallate, Seigneur de la Mort", "value": 2},
    {"source": "Shilen", "target": "Lilith", "value": 2},
    {"source": "Shilen", "target": "Zakaron, Némésis d'Anakim", "value": 2},
    {"source": "Shilen", "target": "Talos, Percepteur Mammon", "value": 1},
    {"source": "Shilen", "target": "Tempête, le Mauvais Esprit", "value": 1},
    {"source": "Shilen", "target": "Sirocco, Seigneur Gargouille", "value": 1},
    {"source": "Tempête, le Mauvais Esprit", "target": "Acheron, le Collecteur d’Âmes", "value": 1},
    {"source": "Lilith", "target": "Lilims & Liths", "value": 2},
    {"source": "Lilith", "target": "Marilion, Sorcière de Lilith", "value": 2},
    {"source": "Hallate, Seigneur de la Mort", "target": "Kernon", "value": 2},
    {"source": "Hallate, Seigneur de la Mort", "target": "Rahha", "value": 2},
    {"source": "Hallate, Seigneur de la Mort", "target": "Golkonda le Capricorne", "value": 2},
    {"source": "Hallate, Seigneur de la Mort", "target": "Verfa", "value": 2},
    {"source": "Shilen", "target": "Cabrio, Messager de Shilen", "value": 1},
    {"source": "Shilen", "target": "Dagoniel", "value": 1},
    {"source": "Dagoniel", "target": "Malex, Héraut de Dagoniel", "value": 2},

    {"source": "Antharas", "target": "Cloe, Prêtresse d'Antharas", "value": 2},
    {"source": "Antharas", "target": "Lily le Lys Noir", "value": 4},
    {"source": "Antharas", "target": "Rudelto le Prêtre Sanglant", "value": 1},

    {"source": "Isirr le Sorcier", "target": "Brukunt des Abysses", "value": 1},
    {"source": "Asefa", "target": "Nastron l’Âme du Feu", "value": 1},
    {"source": "Udan Mardui", "target": "Ashutar l’Âme de l'Eau", "value": 1},

    {"source": "Beleth", "target": "Baylor", "value": 2},
    {"source": "Beleth", "target": "Darion", "value": 2},
    {"source": "Beleth", "target": "Darnel", "value": 2},
    {"source": "Beleth", "target": "Kechi", "value": 2},
    {"source": "Beleth", "target": "Epidos", "value": 2},
    {"source": "Beleth", "target": "Larmes", "value": 2},
    {"source": "Beleth", "target": "Totem Géant de Fer", "value": 1},
    {"source": "Beleth", "target": "Œil de Beleth", "value": 1},
    {"source": "Beleth", "target": "Sephia, Voyante de Beleth", "value": 2},
    {"source": "Darion", "target": "Le Prince Démon", "value": 2},
    {"source": "Darion", "target": "Ranku", "value": 2},
    {"source": "Darion", "target": "Typhon", "value": 2},
    {"source": "Beleth", "target": "Kurikups", "value": 2},
    {"source": "Kurikups", "target": "Kenishee la Grande", "value": 2},

    {"source": "Gran Kain", "target": "Shilen", "value": 1},
    {"source": "Gran Kain", "target": "Pa'agrio", "value": 1},
    {"source": "Gran Kain", "target": "Shaya", "value": 1},
    {"source": "Gran Kain", "target": "Maphr", "value": 1},
    {"source": "Gran Kain", "target": "Eva", "value": 1},
    {"source": "Shilen", "target": "Valakas", "value": 1},
    {"source": "Valakas", "target": "Ember", "value": 1},
    {"source": "Valakas", "target": "Ixion, Ailes de Flamme", "value": 1},
    {"source": "Shilen", "target": "Fafurion", "value": 1},
    {"source": "Fafurion", "target": "Lokness, Héraut de Fafurion", "value": 1},
    {"source": "Shilen", "target": "Antharas", "value": 1},
    {"source": "Shilen", "target": "Meanas Anor", "value": 1},
    {"source": "Shilen", "target": "Lindvior", "value": 1},
    {"source": "Lindvior", "target": "Naga, Tempête Ailée", "value": 1},
    {"source": "Shilen", "target": "Bael Zael", "value": 1},
    {"source": "Bael Zael", "target": "Dius", "value": 1},
    {"source": "Shilen", "target": "Ancien Dragon Étrange", "value": 1},
    {"source": "Shilen", "target": "Cyrion, Mauvais Esprit", "value": 1},
    {"source": "Shilen", "target": "Nakondas", "value": 1},
    {"source": "Shilen", "target": "Tiat", "value": 1},
    {"source": "Shilen", "target": "Rugissant Lancier Céleste", "value": 1},
    {"source": "Shilen", "target": "Aulakiria", "value": 1}
  ]
}
